## Autogenerated by Scribe. DO NOT MODIFY.

name: 'Tour Management'
description: |-

  APIs for managing tours and tour packages
endpoints:
  -
    httpMethods:
      - GET
    uri: api/tour-categories
    metadata:
      groupName: 'Tour Management'
      groupDescription: |-

        APIs for managing tours and tour packages
      subgroup: ''
      subgroupDescription: ''
      title: 'Get tour categories'
      description: ''
      authenticated: false
      custom: []
    headers:
      Content-Type: application/json
      Accept: application/json
    urlParameters: []
    cleanUrlParameters: []
    queryParameters:
      status:
        name: status
        description: 'Filter by status (active/inactive).'
        required: false
        example: active
        type: string
        enumValues: []
        exampleWasSpecified: true
        nullable: false
        custom: []
    cleanQueryParameters:
      status: active
    bodyParameters: []
    cleanBodyParameters: []
    fileParameters: []
    responses:
      -
        status: 200
        content: |-
          {
            "data": [
              {
                "id": 1,
                "name": "Beach Tours",
                "description": "Beach and coastal tours",
                "status": "active",
                "tours_count": 15,
                "created_at": "2023-04-29T10:00:00.000000Z"
              }
            ]
          }
        headers: []
        description: ''
        custom: []
    responseFields: []
    auth: []
    controller: null
    method: null
    route: null
    custom: []
  -
    httpMethods:
      - GET
    uri: api/tours
    metadata:
      groupName: 'Tour Management'
      groupDescription: |-

        APIs for managing tours and tour packages
      subgroup: ''
      subgroupDescription: ''
      title: 'Get all tours with filtering, pagination and sorting'
      description: ''
      authenticated: false
      custom: []
    headers:
      Content-Type: application/json
      Accept: application/json
    urlParameters: []
    cleanUrlParameters: []
    queryParameters:
      status:
        name: status
        description: 'Filter by status (active/inactive/draft).'
        required: false
        example: active
        type: string
        enumValues: []
        exampleWasSpecified: true
        nullable: false
        custom: []
      category_id:
        name: category_id
        description: 'Filter by category ID.'
        required: false
        example: '1'
        type: string
        enumValues: []
        exampleWasSpecified: true
        nullable: false
        custom: []
      tour_type:
        name: tour_type
        description: 'Filter by tour type (domestic/international/local).'
        required: false
        example: domestic
        type: string
        enumValues: []
        exampleWasSpecified: true
        nullable: false
        custom: []
      from_state_id:
        name: from_state_id
        description: 'Filter by departure state ID.'
        required: false
        example: 1
        type: integer
        enumValues: []
        exampleWasSpecified: true
        nullable: false
        custom: []
      to_state_id:
        name: to_state_id
        description: 'Filter by destination state ID.'
        required: false
        example: 2
        type: integer
        enumValues: []
        exampleWasSpecified: true
        nullable: false
        custom: []
      min_price:
        name: min_price
        description: 'Filter by minimum price.'
        required: false
        example: 1000.0
        type: number
        enumValues: []
        exampleWasSpecified: true
        nullable: false
        custom: []
      max_price:
        name: max_price
        description: 'Filter by maximum price.'
        required: false
        example: 5000.0
        type: number
        enumValues: []
        exampleWasSpecified: true
        nullable: false
        custom: []
      duration_min:
        name: duration_min
        description: 'Filter by minimum duration (days).'
        required: false
        example: 3
        type: integer
        enumValues: []
        exampleWasSpecified: true
        nullable: false
        custom: []
      duration_max:
        name: duration_max
        description: 'Filter by maximum duration (days).'
        required: false
        example: 10
        type: integer
        enumValues: []
        exampleWasSpecified: true
        nullable: false
        custom: []
      search:
        name: search
        description: 'Search in tour name and description.'
        required: false
        example: beach
        type: string
        enumValues: []
        exampleWasSpecified: true
        nullable: false
        custom: []
      sort_by:
        name: sort_by
        description: 'Sort by field (name/base_price_adult/duration/created_at).'
        required: false
        example: base_price_adult
        type: string
        enumValues: []
        exampleWasSpecified: true
        nullable: false
        custom: []
      sort_order:
        name: sort_order
        description: 'Sort order (asc/desc).'
        required: false
        example: asc
        type: string
        enumValues: []
        exampleWasSpecified: true
        nullable: false
        custom: []
      per_page:
        name: per_page
        description: 'Items per page (max 100).'
        required: false
        example: 15
        type: integer
        enumValues: []
        exampleWasSpecified: true
        nullable: false
        custom: []
      page:
        name: page
        description: 'Page number.'
        required: false
        example: 1
        type: integer
        enumValues: []
        exampleWasSpecified: true
        nullable: false
        custom: []
    cleanQueryParameters:
      status: active
      category_id: '1'
      tour_type: domestic
      from_state_id: 1
      to_state_id: 2
      min_price: 1000.0
      max_price: 5000.0
      duration_min: 3
      duration_max: 10
      search: beach
      sort_by: base_price_adult
      sort_order: asc
      per_page: 15
      page: 1
    bodyParameters: []
    cleanBodyParameters: []
    fileParameters: []
    responses:
      -
        status: 200
        content: |-
          {
            "data": [
              {
                "id": "uuid-here",
                "name": "Cox's Bazar Beach Tour",
                "slug": "coxs-bazar-beach-tour",
                "description": "Beautiful beach tour package",
                "base_price_adult": 15000,
                "base_price_child": 12000,
                "duration_days": 3,
                "duration_nights": 2,
                "max_booking_per_day": 20,
                "tour_type": "domestic",
                "status": "active",
                "is_featured": true,
                "category": {
                  "id": 1,
                  "name": "Beach Tours"
                },
                "from_state": {
                  "id": 1,
                  "name": "Dhaka"
                },
                "to_state": {
                  "id": 2,
                  "name": "Chittagong"
                },
                "tour_route": "Dhaka → Chittagong",
                "bookings_count": 15,
                "created_at": "2023-04-29T10:00:00.000000Z"
              }
            ],
            "meta": {
              "current_page": 1,
              "last_page": 5,
              "per_page": 15,
              "total": 75,
              "from": 1,
              "to": 15
            }
          }
        headers: []
        description: ''
        custom: []
    responseFields: []
    auth: []
    controller: null
    method: null
    route: null
    custom: []
  -
    httpMethods:
      - GET
    uri: 'api/tours/tours/{slug}'
    metadata:
      groupName: 'Tour Management'
      groupDescription: |-

        APIs for managing tours and tour packages
      subgroup: ''
      subgroupDescription: ''
      title: 'Get a specific tour'
      description: ''
      authenticated: false
      custom: []
    headers:
      Content-Type: application/json
      Accept: application/json
    urlParameters:
      slug:
        name: slug
        description: 'The slug of the tour.'
        required: true
        example: coxs-bazar-beach-tour
        type: string
        enumValues: []
        exampleWasSpecified: true
        nullable: false
        custom: []
    cleanUrlParameters:
      slug: coxs-bazar-beach-tour
    queryParameters: []
    cleanQueryParameters: []
    bodyParameters: []
    cleanBodyParameters: []
    fileParameters: []
    responses:
      -
        status: 200
        content: |-
          {
            "data": {
              "id": "uuid-here",
              "name": "Cox's Bazar Beach Tour",
              "slug": "coxs-bazar-beach-tour",
              "description": "Complete beach tour package with accommodation",
              "base_price_adult": 15000,
              "base_price_child": 12000,
              "duration_days": 3,
              "duration_nights": 2,
              "max_booking_per_day": 20,
              "tour_type": "domestic",
              "status": "active",
              "is_featured": true,
              "category": {
                "id": 1,
                "name": "Beach Tours",
                "description": "Beach and coastal tours"
              },
              "from_state": {
                "id": 1,
                "name": "Dhaka"
              },
              "to_state": {
                "id": 2,
                "name": "Chittagong"
              },
              "itineraries": [
                {
                  "day": 1,
                  "title": "Arrival",
                  "description": "Check-in and beach walk"
                }
              ],
              "galleries": [
                {
                  "id": 1,
                  "image_url": "https://example.com/image1.jpg",
                  "alt_text": "Beach view"
                }
              ],
              "faqs": [
                {
                  "question": "What's included?",
                  "answer": "All meals and accommodation"
                }
              ],
              "tour_route": "Dhaka → Chittagong",
              "bookings_count": 25,
              "created_at": "2023-04-29T10:00:00.000000Z"
            }
          }
        headers: []
        description: ''
        custom: []
    responseFields: []
    auth: []
    controller: null
    method: null
    route: null
    custom: []
  -
    httpMethods:
      - GET
    uri: api/tours/featured/list
    metadata:
      groupName: 'Tour Management'
      groupDescription: |-

        APIs for managing tours and tour packages
      subgroup: ''
      subgroupDescription: ''
      title: 'Get featured tours'
      description: ''
      authenticated: false
      custom: []
    headers:
      Content-Type: application/json
      Accept: application/json
    urlParameters: []
    cleanUrlParameters: []
    queryParameters:
      limit:
        name: limit
        description: 'Number of tours to return (max 20).'
        required: false
        example: 6
        type: integer
        enumValues: []
        exampleWasSpecified: true
        nullable: false
        custom: []
      status:
        name: status
        description: 'Filter by status (active/inactive).'
        required: false
        example: active
        type: string
        enumValues: []
        exampleWasSpecified: true
        nullable: false
        custom: []
    cleanQueryParameters:
      limit: 6
      status: active
    bodyParameters: []
    cleanBodyParameters: []
    fileParameters: []
    responses:
      -
        status: 200
        content: |-
          {
            "data": [
              {
                "id": "uuid-here",
                "name": "Cox's Bazar Beach Tour",
                "slug": "coxs-bazar-beach-tour",
                "base_price_adult": 15000,
                "base_price_child": 12000,
                "duration_days": 3,
                "tour_type": "domestic",
                "status": "active",
                "is_featured": true,
                "category": {
                  "id": 1,
                  "name": "Beach Tours"
                },
                "to_state": {
                  "id": 2,
                  "name": "Chittagong"
                },
                "tour_route": "Dhaka → Chittagong",
                "bookings_count": 25
              }
            ]
          }
        headers: []
        description: ''
        custom: []
    responseFields: []
    auth: []
    controller: null
    method: null
    route: null
    custom: []
  -
    httpMethods:
      - GET
    uri: api/tours/popular/list
    metadata:
      groupName: 'Tour Management'
      groupDescription: |-

        APIs for managing tours and tour packages
      subgroup: ''
      subgroupDescription: ''
      title: 'Get popular tours (admin marked + most booked)'
      description: ''
      authenticated: false
      custom: []
    headers:
      Content-Type: application/json
      Accept: application/json
    urlParameters: []
    cleanUrlParameters: []
    queryParameters:
      limit:
        name: limit
        description: 'Number of tours to return (max 20).'
        required: false
        example: 8
        type: integer
        enumValues: []
        exampleWasSpecified: true
        nullable: false
        custom: []
      status:
        name: status
        description: 'Filter by status (active/inactive).'
        required: false
        example: active
        type: string
        enumValues: []
        exampleWasSpecified: true
        nullable: false
        custom: []
    cleanQueryParameters:
      limit: 8
      status: active
    bodyParameters: []
    cleanBodyParameters: []
    fileParameters: []
    responses:
      -
        status: 200
        content: |-
          {
            "data": [
              {
                "id": "uuid-here",
                "name": "Cox's Bazar Beach Tour",
                "slug": "coxs-bazar-beach-tour",
                "base_price_adult": 15000,
                "base_price_child": 12000,
                "duration_days": 3,
                "tour_type": "domestic",
                "status": "active",
                "is_popular": true,
                "category": {
                  "id": 1,
                  "name": "Beach Tours"
                },
                "to_state": {
                  "id": 2,
                  "name": "Chittagong"
                },
                "tour_route": "Dhaka → Chittagong",
                "bookings_count": 150
              }
            ]
          }
        headers: []
        description: ''
        custom: []
    responseFields: []
    auth: []
    controller: null
    method: null
    route: null
    custom: []
  -
    httpMethods:
      - GET
    uri: api/tours/search/query
    metadata:
      groupName: 'Tour Management'
      groupDescription: |-

        APIs for managing tours and tour packages
      subgroup: ''
      subgroupDescription: ''
      title: 'Search tours'
      description: ''
      authenticated: false
      custom: []
    headers:
      Content-Type: application/json
      Accept: application/json
    urlParameters: []
    cleanUrlParameters: []
    queryParameters:
      q:
        name: q
        description: 'Search query.'
        required: true
        example: 'beach tour'
        type: string
        enumValues: []
        exampleWasSpecified: true
        nullable: false
        custom: []
      status:
        name: status
        description: 'Filter by status (active/inactive).'
        required: false
        example: active
        type: string
        enumValues: []
        exampleWasSpecified: true
        nullable: false
        custom: []
      category_id:
        name: category_id
        description: 'Filter by category.'
        required: false
        example: 1
        type: integer
        enumValues: []
        exampleWasSpecified: true
        nullable: false
        custom: []
      tour_type:
        name: tour_type
        description: 'Filter by tour type.'
        required: false
        example: domestic
        type: string
        enumValues: []
        exampleWasSpecified: true
        nullable: false
        custom: []
      per_page:
        name: per_page
        description: 'Items per page (max 50).'
        required: false
        example: 10
        type: integer
        enumValues: []
        exampleWasSpecified: true
        nullable: false
        custom: []
    cleanQueryParameters:
      q: 'beach tour'
      status: active
      category_id: 1
      tour_type: domestic
      per_page: 10
    bodyParameters:
      q:
        name: q
        description: 'Must be at least 2 characters.'
        required: true
        example: vmqeopfuudtdsufvyvddqamniihfqcoynlazghdtqtqxbajwbpilpmufinllwloauydlsmsjur
        type: string
        enumValues: []
        exampleWasSpecified: false
        nullable: false
        custom: []
    cleanBodyParameters:
      q: vmqeopfuudtdsufvyvddqamniihfqcoynlazghdtqtqxbajwbpilpmufinllwloauydlsmsjur
    fileParameters: []
    responses:
      -
        status: 200
        content: |-
          {
            "data": [
              {
                "id": "uuid-here",
                "name": "Cox's Bazar Beach Tour",
                "description": "Beautiful beach experience...",
                "base_price_adult": 15000,
                "duration_days": 3,
                "tour_type": "domestic",
                "status": "active",
                "category": {
                  "name": "Beach Tours"
                },
                "tour_route": "Dhaka → Chittagong",
                "bookings_count": 25
              }
            ],
            "meta": {
              "query": "beach tour",
              "total_found": 5
            }
          }
        headers: []
        description: ''
        custom: []
    responseFields: []
    auth: []
    controller: null
    method: null
    route: null
    custom: []
  -
    httpMethods:
      - GET
    uri: 'api/tours/category/{category_id}'
    metadata:
      groupName: 'Tour Management'
      groupDescription: |-

        APIs for managing tours and tour packages
      subgroup: ''
      subgroupDescription: ''
      title: 'Get tours by category'
      description: ''
      authenticated: false
      custom: []
    headers:
      Content-Type: application/json
      Accept: application/json
    urlParameters:
      category_id:
        name: category_id
        description: 'The ID of the category.'
        required: true
        example: 1
        type: integer
        enumValues: []
        exampleWasSpecified: true
        nullable: false
        custom: []
    cleanUrlParameters:
      category_id: 1
    queryParameters:
      status:
        name: status
        description: 'Filter by status (active/inactive).'
        required: false
        example: active
        type: string
        enumValues: []
        exampleWasSpecified: true
        nullable: false
        custom: []
      per_page:
        name: per_page
        description: 'Items per page (max 50).'
        required: false
        example: 12
        type: integer
        enumValues: []
        exampleWasSpecified: true
        nullable: false
        custom: []
    cleanQueryParameters:
      status: active
      per_page: 12
    bodyParameters: []
    cleanBodyParameters: []
    fileParameters: []
    responses:
      -
        status: 200
        content: |-
          {
            "data": [
              {
                "id": "uuid-here",
                "name": "Cox's Bazar Beach Tour",
                "base_price_adult": 15000,
                "duration_days": 3,
                "tour_type": "domestic",
                "status": "active",
                "tour_route": "Dhaka → Chittagong",
                "bookings_count": 25
              }
            ],
            "meta": {
              "current_page": 1,
              "last_page": 2,
              "per_page": 12,
              "total": 20
            }
          }
        headers: []
        description: ''
        custom: []
    responseFields: []
    auth: []
    controller: null
    method: null
    route: null
    custom: []
